…
joined_dat%>%arrange(desc(DISCLIM))%>%head()

##   School Minority    Sex    SES MathAch Size Sector PRACAD DISCLIM
## 1   6464      Yes Female -0.518   4.898 1453 Public   0.25   2.756
## 2   6464      Yes   Male -1.458  23.822 1453 Public   0.25   2.756
## 3   6464      Yes Female -1.068   2.570 1453 Public   0.25   2.756
## 4   6464      Yes Female -2.328   0.247 1453 Public   0.25   2.756
## 5   6464      Yes   Male -0.298  11.448 1453 Public   0.25   2.756
## 6   6464      Yes   Male -0.808   4.745 1453 Public   0.25   2.756

joined_dat%>%group_by(School)%>%summarize(mean(MathAch))

## # A tibble: 160 x 2
##    School `mean(MathAch)`
##    <chr>            <dbl>
##  1 1224              9.72
##  2 1288             13.5 
##  3 1296              7.64
##  4 1308             16.3 
##  5 1317             13.2 
##  6 1358             11.2 
##  7 1374              9.73
##  8 1433             19.7 
##  9 1436             18.1 
## 10 1461             16.8 
## # … with 150 more rows

#Using mutate and group_by to create another variable AvgAch which will be useful later
joined_dat2<- joined_dat%>%group_by(School)%>%mutate(AvgAch=mean(MathAch))

joined_dat2 is the primary dataset used in the entirety of the Project. It has the School variable followed by three useful categorical variables and 6 useful numerical variables (including AvgAch).

##Wrangling
#Grouped by school(previously using left_join and by) and then using summarize() function to find the variation/sd for students within each school
joined_dat2%>%summarize(mean(MathAch), sd(MathAch), var(MathAch), min(MathAch), max(MathAch))

## # A tibble: 160 x 6
##    School `mean(MathAch)` `sd(MathAch)` `var(MathAch)` `min(MathAch)`
##    <chr>            <dbl>         <dbl>          <dbl>          <dbl>
##  1 1224              9.72          7.59           57.7          -2.83
##  2 1288             13.5           7.02           49.3           1.58
##  3 1296              7.64          5.35           28.6          -1.35
##  4 1308             16.3           6.11           37.4           2.51
##  5 1317             13.2           5.46           29.8           3.22
##  6 1358             11.2           5.88           34.5          -1.35
##  7 1374              9.73          8.36           69.9          -2.66
##  8 1433             19.7           3.88           15.0          11.5 
##  9 1436             18.1           4.55           20.7           5.51
## 10 1461             16.8           6.95           48.3          -2.83
## # … with 150 more rows, and 1 more variable: `max(MathAch)` <dbl>

joined_dat2%>%summarize(mean(SES), sd(SES), var(SES), min(SES), max(SES))

## # A tibble: 160 x 6
##    School `mean(SES)` `sd(SES)` `var(SES)` `min(SES)` `max(SES)`
##    <chr>        <dbl>     <dbl>      <dbl>      <dbl>      <dbl>
##  1 1224       -0.434      0.627      0.393     -1.66       0.972
##  2 1288        0.122      0.669      0.448     -1.47       1.26 
##  3 1296       -0.426      0.647      0.419     -1.63       1.24 
##  4 1308        0.528      0.480      0.230     -0.568      1.51 
##  5 1317        0.345      0.556      0.309     -1.25       1.46 
##  6 1358       -0.0197     0.657      0.432     -1.41       1.28 
##  7 1374       -0.0126     0.699      0.489     -1.22       1.24 
##  8 1433        0.712      0.595      0.353     -0.588      1.51 
##  9 1436        0.563      0.572      0.327     -1.04       1.51 
## 10 1461        0.677      0.693      0.480     -1.11       1.42 
## # … with 150 more rows
…
#Doing grouped and ungrouped to find individual as well as separated summary statistics
joined_dat2%>%ungroup()%>%summarize(mean(MathAch), sd(MathAch), var(MathAch), min(MathAch), max(MathAch))

## # A tibble: 1 x 5
##   `mean(MathAch)` `sd(MathAch)` `var(MathAch)` `min(MathAch)` `max(MathAch)`
##             <dbl>         <dbl>          <dbl>          <dbl>          <dbl>
## 1            12.7          6.88           47.3          -2.83           25.0

joined_dat2%>%summarize(mean(MathAch), sd(MathAch), var(MathAch), min(MathAch), max(MathAch))

## # A tibble: 160 x 6
##    School `mean(MathAch)` `sd(MathAch)` `var(MathAch)` `min(MathAch)`
##    <chr>            <dbl>         <dbl>          <dbl>          <dbl>
##  1 1224              9.72          7.59           57.7          -2.83
##  2 1288             13.5           7.02           49.3           1.58
##  3 1296              7.64          5.35           28.6          -1.35
##  4 1308             16.3           6.11           37.4           2.51
##  5 1317             13.2           5.46           29.8           3.22
##  6 1358             11.2           5.88           34.5          -1.35
##  7 1374              9.73          8.36           69.9          -2.66
##  8 1433             19.7           3.88           15.0          11.5 
##  9 1436             18.1           4.55           20.7           5.51
## 10 1461             16.8           6.95           48.3          -2.83
## # … with 150 more rows, and 1 more variable: `max(MathAch)` <dbl>

joined_dat2%>%ungroup()%>%summarize(mean(SES), sd(SES), var(SES), min(SES), max(SES))

## # A tibble: 1 x 5
##   `mean(SES)` `sd(SES)` `var(SES)` `min(SES)` `max(SES)`
##         <dbl>     <dbl>      <dbl>      <dbl>      <dbl>
## 1    0.000143     0.779      0.607      -3.76       2.69

joined_dat2%>%summarize(mean(SES), sd(SES), var(SES), min(SES), max(SES))

## # A tibble: 160 x 6
##    School `mean(SES)` `sd(SES)` `var(SES)` `min(SES)` `max(SES)`
##    <chr>        <dbl>     <dbl>      <dbl>      <dbl>      <dbl>
##  1 1224       -0.434      0.627      0.393     -1.66       0.972
##  2 1288        0.122      0.669      0.448     -1.47       1.26 
##  3 1296       -0.426      0.647      0.419     -1.63       1.24 
##  4 1308        0.528      0.480      0.230     -0.568      1.51 
##  5 1317        0.345      0.556      0.309     -1.25       1.46 
##  6 1358       -0.0197     0.657      0.432     -1.41       1.28 
##  7 1374       -0.0126     0.699      0.489     -1.22       1.24 
##  8 1433        0.712      0.595      0.353     -0.588      1.51 
##  9 1436        0.563      0.572      0.327     -1.04       1.51 
## 10 1461        0.677      0.693      0.480     -1.11       1.42 
## # … with 150 more rows
…
joined_dat2%>%ungroup()%>%filter(Sex=="Male")%>%summarize(cor(SES,MathAch))

## # A tibble: 1 x 1
##   `cor(SES, MathAch)`
##                 <dbl>
## 1               0.333

#Using mutate to create another variable
joined_dat2%>%mutate(AvgSES=mean(SES))

## # A tibble: 7,185 x 11
## # Groups:   School [160]
##    School Minority Sex      SES MathAch  Size Sector PRACAD DISCLIM AvgAch
##    <chr>  <fct>    <fct>  <dbl>   <dbl> <dbl> <fct>   <dbl>   <dbl>  <dbl>
##  1 1224   No       Fema… -1.53    5.88    842 Public   0.35    1.60   9.72
##  2 1224   No       Fema… -0.588  19.7     842 Public   0.35    1.60   9.72
##  3 1224   No       Male  -0.528  20.3     842 Public   0.35    1.60   9.72
##  4 1224   No       Male  -0.668   8.78    842 Public   0.35    1.60   9.72
##  5 1224   No       Male  -0.158  17.9     842 Public   0.35    1.60   9.72
##  6 1224   No       Male   0.022   4.58    842 Public   0.35    1.60   9.72
##  7 1224   No       Fema… -0.618  -2.83    842 Public   0.35    1.60   9.72
##  8 1224   No       Male  -0.998   0.523   842 Public   0.35    1.60   9.72
##  9 1224   No       Fema… -0.888   1.53    842 Public   0.35    1.60   9.72
## 10 1224   No       Male  -0.458  21.5     842 Public   0.35    1.60   9.72
## # … with 7,175 more rows, and 1 more variable: AvgSES <dbl>
…
